<!-- <?php
            $todos = $conn->query("SELECT task.id , task.nameTask, statustask.status  FROM task INNER JOIN statustask ON task.id_status = statustask.id;");
            foreach($todos as $item){
        ?>
        <div class="todoitem" id = "<?php echo $item['id'];?>">
            <div class="item">
                <span><p class="name_task"><?php echo $item['nameTask'];?></p></span>
                <span><p class="status"><?php echo $item[2];?></p></span>
                <span><p>count: 3</p></span>
                <button type="button" class = "delete_button">Delete</button>
            </div>
            <div class="infoblok">
                sfcaefse
            </div>  
        </div>
        <?php
            }
        ?> -->